{
  "project_info": {
    "project_number": "1018369162590",
    "firebase_url": "https://oghyanooseabi-d48fd.firebaseio.com",
    "project_id": "oghyanooseabi-d48fd",
    "storage_bucket": "oghyanooseabi-d48fd.appspot.com"
  },
  "client": [
    {
      "client_info": {
        "mobilesdk_app_id": "1:1018369162590:android:22f33a7821349d4b5223cf",
        "android_client_info": {
          "package_name": "com.oghyanooseabi"
        }
      },
      "oauth_client": [
        {
          "client_id": "1018369162590-0k3u681uv890bpibf4q0hcktnaql39nb.apps.googleusercontent.com",
          "client_type": 3
        }
      ],
      "api_key": [
        {
          "current_key": "AIzaSyBADHbs__IcpRQgDeTfMJLa42nVW0njd0s"
        }
      ],
      "services": {
        "appinvite_service": {
          "other_platform_oauth_client": [
            {
              "client_id": "1018369162590-0k3u681uv890bpibf4q0hcktnaql39nb.apps.googleusercontent.com",
              "client_type": 3
            }
          ]
        }
      }
    }
  ],
  "configuration_version": "1"
}